{
  "version": "2.0",
  "licenses": [
    {
      "id": "Apache-2.0",
      "name": "Apache License 2.0",
      "url": "https://opensource.org/licenses/Apache-2.0",
      "count": 1
    },
    {
      "id": "bsd",
      "name": "BSD",
      "url": "http://en.wikipedia.org/wiki/BSD_licenses",
      "count": 1
    },
    {
      "id": "MIT",
      "name": "MIT License",
      "url": "https://opensource.org/licenses/MIT",
      "count": 1
    },
    {
      "id": "public domain, python, 2-clause bsd, gpl 3 (see copying.txt)",
      "name": "public domain, Python, 2-Clause BSD, GPL 3 (see COPYING.txt)",
      "url": "",
      "count": 1
    }
  ],
  "dependencies": [
    {
      "name": "Django",
      "url": "https://www.djangoproject.com/",
      "description": "A high-level Python Web framework that encourages rapid development and clean, pragmatic design.",
      "paths": [
        "."
      ],
      "licenses": [
        "bsd"
      ]
    },
    {
      "name": "docutils",
      "url": "http://docutils.sourceforge.net/",
      "description": "Docutils -- Python Documentation Utilities",
      "paths": [
        "."
      ],
      "licenses": [
        "public domain, python, 2-clause bsd, gpl 3 (see copying.txt)"
      ]
    },
    {
      "name": "pytz",
      "url": "http://pythonhosted.org/pytz",
      "description": "World timezone definitions, modern and historical",
      "paths": [
        "."
      ],
      "licenses": [
        "MIT"
      ]
    },
    {
      "name": "requests",
      "url": "http://python-requests.org",
      "description": "Python HTTP for Humans.",
      "paths": [
        "."
      ],
      "licenses": [
        "Apache-2.0"
      ]
    }
  ]
}