{
  "version": "2.0",
  "licenses": [
    {
      "id": "Apache-2.0",
      "name": "Apache License 2.0",
      "url": "https://opensource.org/licenses/Apache-2.0",
      "count": 16
    },
    {
      "id": "bsd",
      "name": "BSD",
      "url": "http://en.wikipedia.org/wiki/BSD_licenses",
      "count": 4
    },
    {
      "id": "LGPL-2.1",
      "name": "GNU Lesser General Public License v2.1 only",
      "url": "https://opensource.org/licenses/LGPL-2.1",
      "count": 1
    },
    {
      "id": "MPL-1.1",
      "name": "Mozilla Public License 1.1",
      "url": "https://opensource.org/licenses/MPL-1.1",
      "count": 1
    },
    {
      "id": "unknown",
      "name": "unknown",
      "url": "",
      "count": 1
    }
  ],
  "dependencies": [
    {
      "name": "asm",
      "url": "",
      "description": "",
      "paths": [
        "."
      ],
      "licenses": [
        "bsd"
      ]
    },
    {
      "name": "asm-commons",
      "url": "",
      "description": "",
      "paths": [
        "."
      ],
      "licenses": [
        "bsd"
      ]
    },
    {
      "name": "asm-tree",
      "url": "",
      "description": "",
      "paths": [
        "."
      ],
      "licenses": [
        "bsd"
      ]
    },
    {
      "name": "commons-fileupload",
      "url": "",
      "description": "",
      "paths": [
        "."
      ],
      "licenses": [
        "Apache-2.0"
      ]
    },
    {
      "name": "commons-io",
      "url": "",
      "description": "",
      "paths": [
        "."
      ],
      "licenses": [
        "Apache-2.0"
      ]
    },
    {
      "name": "commons-lang3",
      "url": "",
      "description": "",
      "paths": [
        "."
      ],
      "licenses": [
        "Apache-2.0"
      ]
    },
    {
      "name": "freemarker",
      "url": "",
      "description": "",
      "paths": [
        "."
      ],
      "licenses": [
        "Apache-2.0"
      ]
    },
    {
      "name": "jackson-annotations",
      "url": "",
      "description": "",
      "paths": [
        "."
      ],
      "licenses": [
        "Apache-2.0"
      ]
    },
    {
      "name": "jackson-core",
      "url": "",
      "description": "",
      "paths": [
        "."
      ],
      "licenses": [
        "Apache-2.0"
      ]
    },
    {
      "name": "jackson-databind",
      "url": "",
      "description": "",
      "paths": [
        "."
      ],
      "licenses": [
        "Apache-2.0"
      ]
    },
    {
      "name": "jackson-dataformat-xml",
      "url": "",
      "description": "",
      "paths": [
        "."
      ],
      "licenses": [
        "Apache-2.0"
      ]
    },
    {
      "name": "jackson-module-jaxb-annotations",
      "url": "",
      "description": "",
      "paths": [
        "."
      ],
      "licenses": [
        "Apache-2.0"
      ]
    },
    {
      "name": "javassist",
      "url": "",
      "description": "",
      "paths": [
        "."
      ],
      "licenses": [
        "Apache-2.0",
        "LGPL-2.1",
        "MPL-1.1"
      ]
    },
    {
      "name": "log4j-api",
      "url": "",
      "description": "",
      "paths": [
        "."
      ],
      "licenses": [
        "Apache-2.0"
      ]
    },
    {
      "name": "log4j-api",
      "url": "",
      "description": "",
      "paths": [
        "."
      ],
      "licenses": [
        "Apache-2.0"
      ]
    },
    {
      "name": "log4j-core",
      "url": "",
      "description": "",
      "paths": [
        "."
      ],
      "licenses": [
        "Apache-2.0"
      ]
    },
    {
      "name": "model",
      "url": "",
      "description": "",
      "paths": [
        "."
      ],
      "licenses": [
        "unknown"
      ]
    },
    {
      "name": "netty-all",
      "url": "",
      "description": "",
      "paths": [
        "."
      ],
      "licenses": [
        "Apache-2.0"
      ]
    },
    {
      "name": "ognl",
      "url": "",
      "description": "",
      "paths": [
        "."
      ],
      "licenses": [
        "Apache-2.0"
      ]
    },
    {
      "name": "stax2-api",
      "url": "",
      "description": "",
      "paths": [
        "."
      ],
      "licenses": [
        "bsd"
      ]
    },
    {
      "name": "struts2-core",
      "url": "",
      "description": "",
      "paths": [
        "."
      ],
      "licenses": [
        "Apache-2.0"
      ]
    }
  ]
}
